de/thkoeln/eksa/osgi/verwaltung/KundeKontoVerwaltung.class
de/thkoeln/eksa/osgi/entitaetsklassen/Kunde.class
de/thkoeln/eksa/osgi/entitaetsklassen/Konto.class
de/thkoeln/eksa/osgi/sonstigedienste/NummernSpeicher.class
